<svg width="134" height="41" viewBox="0 0 134 41" fill="none" xmlns="http://www.w3.org/2000/svg">
<mask id="mask0" mask-type="alpha" maskUnits="userSpaceOnUse" x="0" y="0" width="40" height="41">
<path d="M30.5779 0.890625H8.64159C3.86897 0.890625 0 4.7596 0 9.53221V31.4686C0 36.2412 3.86897 40.1101 8.64159 40.1101H30.5779C35.3505 40.1101 39.2195 36.2412 39.2195 31.4686V9.53221C39.2195 4.7596 35.3505 0.890625 30.5779 0.890625Z" fill="white"/>
</mask>
<g mask="url(#mask0)">
<path d="M30.5779 0.890625H8.64159C3.86897 0.890625 0 4.7596 0 9.53221V31.4686C0 36.2412 3.86897 40.1101 8.64159 40.1101H30.5779C35.3505 40.1101 39.2195 36.2412 39.2195 31.4686V9.53221C39.2195 4.7596 35.3505 0.890625 30.5779 0.890625Z" fill="url(#paint0_linear)"/>
<path d="M12.9624 6.20801H26.2571C28.0927 6.20801 29.5808 7.69607 29.5808 9.5317V40.1096H9.63867V9.5317C9.63867 7.69607 11.1267 6.20801 12.9624 6.20801Z" fill="black"/>
<path d="M18.1138 7.87012H21.1051C21.3804 7.87012 21.6037 8.09333 21.6037 8.36867C21.6037 8.64401 21.3804 8.86722 21.1051 8.86722H18.1138C17.8384 8.86722 17.6152 8.64401 17.6152 8.36867C17.6152 8.09333 17.8384 7.87012 18.1138 7.87012Z" fill="white"/>
<path fill-rule="evenodd" clip-rule="evenodd" d="M14.9231 40.1103L17.4582 35.7078L16.1782 33.543L13.6113 35.0285C13.6113 35.0285 3.38169 16.0562 8.33329 13.1885L19.3803 32.3682L22.1123 27.6243C20.7916 26.2157 20.3966 24.2423 21.2853 22.6993L26.4369 13.7532C26.6161 13.4422 27.0134 13.3352 27.3245 13.5143L27.326 13.5152C27.6377 13.6958 27.7445 14.0946 27.5647 14.4068L22.6639 22.9175C22.4516 23.2857 22.5776 23.7575 22.9447 23.9698C23.3119 24.1821 23.782 24.0558 23.9942 23.6882L28.9368 15.1045C29.093 14.8332 29.4397 14.7398 29.711 14.8961L29.7121 14.8967C29.9838 15.054 30.077 15.4015 29.9203 15.6736L24.9778 24.2573C24.7656 24.626 24.8915 25.0968 25.2587 25.3091C25.6258 25.5219 26.0959 25.3956 26.3082 25.0275L31.2509 16.4435C31.4069 16.1725 31.753 16.0794 32.024 16.2354L32.0255 16.2362C32.297 16.3937 32.39 16.7412 32.2334 17.0132L27.2912 25.5972C27.0789 25.9653 27.2044 26.4366 27.5721 26.6489C27.9398 26.8612 28.4093 26.7349 28.6216 26.3673L33.5225 17.8559C33.7016 17.5448 34.099 17.4378 34.4101 17.6169L34.4115 17.6177C34.7231 17.7981 34.8299 18.1968 34.6501 18.5088L29.4985 27.4524C28.6103 28.9958 26.7086 29.6391 24.8309 29.1974L21.1931 35.5154L23.8398 40.1103H14.9231Z" fill="white"/>
</g>
<g clip-path="url(#clip0)">
<path d="M46.5491 30.2515C46.5491 29.1272 46.7582 28.1401 47.1766 27.2904C47.608 26.4406 48.1898 25.787 48.9219 25.3294C49.654 24.8718 50.471 24.6431 51.3731 24.6431C52.0921 24.6431 52.7458 24.7934 53.334 25.0941C53.9354 25.3948 54.406 25.8 54.746 26.3099V21.231H58.0992V35.7422H54.746V34.1734C54.4322 34.6963 53.9812 35.1147 53.3929 35.4284C52.8177 35.7422 52.1444 35.8991 51.3731 35.8991C50.471 35.8991 49.654 35.6703 48.9219 35.2127C48.1898 34.7421 47.608 34.0819 47.1766 33.2321C46.7582 32.3693 46.5491 31.3757 46.5491 30.2515ZM54.746 30.2711C54.746 29.4344 54.5106 28.7742 54.04 28.2905C53.5824 27.8068 53.0203 27.5649 52.3536 27.5649C51.6868 27.5649 51.1181 27.8068 50.6475 28.2905C50.19 28.7611 49.9612 29.4148 49.9612 30.2515C49.9612 31.0881 50.19 31.7549 50.6475 32.2517C51.1181 32.7354 51.6868 32.9772 52.3536 32.9772C53.0203 32.9772 53.5824 32.7354 54.04 32.2517C54.5106 31.7679 54.746 31.1077 54.746 30.2711ZM70.8399 30.0946C70.8399 30.4083 70.8203 30.7352 70.7811 31.0751H63.1921C63.2444 31.7549 63.4601 32.2778 63.8392 32.6438C64.2314 32.9968 64.7086 33.1733 65.2707 33.1733C66.1074 33.1733 66.6892 32.8203 67.016 32.1144H70.585C70.4019 32.8334 70.0686 33.4805 69.5849 34.0557C69.1142 34.631 68.5194 35.082 67.8004 35.4088C67.0814 35.7357 66.2774 35.8991 65.3884 35.8991C64.3164 35.8991 63.362 35.6703 62.5254 35.2127C61.6887 34.7552 61.035 34.1015 60.5644 33.2517C60.0937 32.402 59.8584 31.4084 59.8584 30.2711C59.8584 29.1337 60.0872 28.1401 60.5448 27.2904C61.0154 26.4406 61.6691 25.787 62.5057 25.3294C63.3424 24.8718 64.3033 24.6431 65.3884 24.6431C66.4473 24.6431 67.3886 24.8653 68.2122 25.3098C69.0358 25.7543 69.6764 26.3883 70.1339 27.2119C70.6046 28.0356 70.8399 28.9964 70.8399 30.0946ZM67.4082 29.2121C67.4082 28.6369 67.2121 28.1794 66.8199 27.8395C66.4277 27.4996 65.9375 27.3296 65.3492 27.3296C64.787 27.3296 64.3098 27.493 63.9176 27.8198C63.5385 28.1467 63.3032 28.6108 63.2117 29.2121H67.4082ZM86.5711 24.6823C87.9307 24.6823 89.0092 25.0941 89.8067 25.9177C90.6172 26.7413 91.0225 27.8852 91.0225 29.3494V35.7422H87.6888V29.8004C87.6888 29.0945 87.4992 28.5519 87.1201 28.1728C86.7541 27.7806 86.2442 27.5845 85.5906 27.5845C84.9369 27.5845 84.4205 27.7806 84.0414 28.1728C83.6753 28.5519 83.4923 29.0945 83.4923 29.8004V35.7422H80.1587V29.8004C80.1587 29.0945 79.9691 28.5519 79.59 28.1728C79.2239 27.7806 78.7141 27.5845 78.0604 27.5845C77.4068 27.5845 76.8904 27.7806 76.5112 28.1728C76.1452 28.5519 75.9622 29.0945 75.9622 29.8004V35.7422H72.6089V24.7999H75.9622V26.1726C76.3021 25.7151 76.7466 25.3556 77.2956 25.0941C77.8447 24.8196 78.4657 24.6823 79.1586 24.6823C79.9822 24.6823 80.7143 24.8588 81.3549 25.2117C82.0085 25.5647 82.5184 26.068 82.8844 26.7217C83.2635 26.1203 83.7799 25.6301 84.4336 25.251C85.0872 24.8718 85.7997 24.6823 86.5711 24.6823ZM98.3486 35.8991C97.2766 35.8991 96.3091 35.6703 95.4463 35.2127C94.5966 34.7552 93.9233 34.1015 93.4265 33.2517C92.9428 32.402 92.7009 31.4084 92.7009 30.2711C92.7009 29.1468 92.9493 28.1597 93.4461 27.31C93.9429 26.4472 94.6227 25.787 95.4855 25.3294C96.3484 24.8718 97.3158 24.6431 98.3878 24.6431C99.4598 24.6431 100.427 24.8718 101.29 25.3294C102.153 25.787 102.833 26.4472 103.329 27.31C103.826 28.1597 104.075 29.1468 104.075 30.2711C104.075 31.3954 103.82 32.3889 103.31 33.2517C102.813 34.1015 102.127 34.7552 101.251 35.2127C100.388 35.6703 99.4206 35.8991 98.3486 35.8991ZM98.3486 32.9968C98.9891 32.9968 99.5317 32.7615 99.9762 32.2909C100.434 31.8202 100.663 31.147 100.663 30.2711C100.663 29.3952 100.44 28.7219 99.9958 28.2513C99.5644 27.7806 99.0284 27.5453 98.3878 27.5453C97.7341 27.5453 97.1916 27.7806 96.7602 28.2513C96.3287 28.7088 96.113 29.3821 96.113 30.2711C96.113 31.147 96.3222 31.8202 96.7406 32.2909C97.172 32.7615 97.708 32.9968 98.3486 32.9968Z" fill="black"/>
<path d="M49.1091 9.55186C49.5013 8.9505 49.9916 8.47986 50.5799 8.13996C51.1682 7.78698 51.8218 7.6105 52.5408 7.6105V11.1599H51.6192C50.7825 11.1599 50.155 11.3429 49.7366 11.7089C49.3183 12.0619 49.1091 12.6894 49.1091 13.5915V18.6704H45.7559V7.72816H49.1091V9.55186Z" fill="black"/>
<path d="M63.674 13.0228C63.674 13.3365 63.6544 13.6634 63.6151 14.0033H56.0262C56.0785 14.6831 56.2942 15.206 56.6733 15.5721C57.0655 15.925 57.5427 16.1015 58.1048 16.1015C58.9415 16.1015 59.5232 15.7485 59.8501 15.0426H63.419C63.236 15.7616 62.9027 16.4087 62.4189 16.984C61.9483 17.5592 61.3535 18.0102 60.6345 18.337C59.9154 18.6639 59.1114 18.8273 58.2225 18.8273C57.1505 18.8273 56.1961 18.5985 55.3594 18.1409C54.5227 17.6834 53.8691 17.0297 53.3985 16.18C52.9278 15.3302 52.6925 14.3366 52.6925 13.1993C52.6925 12.0619 52.9213 11.0683 53.3788 10.2186C53.8495 9.36884 54.5031 8.71518 55.3398 8.25762C56.1765 7.80006 57.1374 7.57128 58.2225 7.57128C59.2814 7.57128 60.2227 7.79352 61.0463 8.23801C61.8699 8.6825 62.5105 9.31655 62.968 10.1402C63.4387 10.9638 63.674 11.9246 63.674 13.0228ZM60.2423 12.1403C60.2423 11.5651 60.0462 11.1076 59.654 10.7677C59.2618 10.4278 58.7715 10.2578 58.1832 10.2578C57.6211 10.2578 57.1439 10.4212 56.7517 10.7481C56.3726 11.0749 56.1373 11.539 56.0458 12.1403H60.2423Z" fill="black"/>
<path d="M69.11 18.8273C68.1557 18.8273 67.3059 18.6639 66.5607 18.337C65.8156 18.0102 65.2273 17.5657 64.7959 17.0036C64.3644 16.4283 64.1226 15.7878 64.0703 15.0818H67.3843C67.4236 15.4609 67.6001 15.7682 67.9138 16.0035C68.2276 16.2388 68.6132 16.3564 69.0708 16.3564C69.4891 16.3564 69.8094 16.278 70.0317 16.1211C70.267 15.9512 70.3846 15.7355 70.3846 15.474C70.3846 15.1603 70.2212 14.9315 69.8944 14.7877C69.5676 14.6308 69.0381 14.4608 68.306 14.2778C67.5216 14.0948 66.868 13.9052 66.345 13.7091C65.8221 13.5 65.3711 13.1797 64.992 12.7483C64.6128 12.3038 64.4233 11.7089 64.4233 10.9638C64.4233 10.3363 64.5932 9.76757 64.9331 9.25772C65.2861 8.73479 65.796 8.32298 66.4627 8.0223C67.1425 7.72162 67.9465 7.57128 68.8747 7.57128C70.2474 7.57128 71.3259 7.91118 72.1103 8.59098C72.9078 9.27079 73.3653 10.1728 73.483 11.2971H70.3846C70.3323 10.918 70.1624 10.6173 69.8748 10.3951C69.6003 10.1728 69.2342 10.0617 68.7766 10.0617C68.3844 10.0617 68.0838 10.1402 67.8746 10.297C67.6654 10.4408 67.5608 10.6435 67.5608 10.9049C67.5608 11.2187 67.7243 11.454 68.0511 11.6109C68.391 11.7678 68.9139 11.9246 69.6199 12.0815C70.4304 12.2907 71.0906 12.4999 71.6004 12.709C72.1103 12.9051 72.5548 13.232 72.9339 13.6895C73.3261 14.134 73.5287 14.7354 73.5418 15.4936C73.5418 16.1342 73.3588 16.7094 72.9927 17.2193C72.6398 17.7161 72.1234 18.1083 71.4436 18.3959C70.7768 18.6835 69.999 18.8273 69.11 18.8273Z" fill="black"/>
<path d="M80.9076 15.827V18.6704H79.2015C77.9857 18.6704 77.0379 18.3763 76.3581 17.788C75.6783 17.1866 75.3384 16.2126 75.3384 14.8661V10.5127H74.0049V7.72816H75.3384V5.06123H78.6917V7.72816H80.888V10.5127H78.6917V14.9053C78.6917 15.2322 78.7701 15.4675 78.927 15.6113C79.0839 15.7551 79.3453 15.827 79.7114 15.827H80.9076Z" fill="black"/>
<path d="M86.9719 18.8273C85.8999 18.8273 84.9325 18.5985 84.0696 18.1409C83.2199 17.6834 82.5466 17.0297 82.0498 16.18C81.5661 15.3302 81.3243 14.3366 81.3243 13.1993C81.3243 12.075 81.5727 11.088 82.0695 10.2382C82.5662 9.37537 83.246 8.71518 84.1089 8.25762C84.9717 7.80006 85.9391 7.57128 87.0111 7.57128C88.0831 7.57128 89.0505 7.80006 89.9134 8.25762C90.7762 8.71518 91.456 9.37537 91.9528 10.2382C92.4496 11.088 92.6979 12.075 92.6979 13.1993C92.6979 14.3236 92.443 15.3171 91.9332 16.18C91.4364 17.0297 90.75 17.6834 89.8741 18.1409C89.0113 18.5985 88.0439 18.8273 86.9719 18.8273ZM86.9719 15.925C87.6125 15.925 88.155 15.6897 88.5995 15.2191C89.0571 14.7484 89.2858 14.0752 89.2858 13.1993C89.2858 12.3234 89.0636 11.6501 88.6191 11.1795C88.1877 10.7088 87.6517 10.4735 87.0111 10.4735C86.3575 10.4735 85.8149 10.7088 85.3835 11.1795C84.9521 11.637 84.7364 12.3103 84.7364 13.1993C84.7364 14.0752 84.9455 14.7484 85.3639 15.2191C85.7953 15.6897 86.3313 15.925 86.9719 15.925Z" fill="black"/>
<path d="M97.0458 9.55186C97.438 8.9505 97.9282 8.47986 98.5165 8.13996C99.1048 7.78698 99.7585 7.6105 100.478 7.6105V11.1599H99.5558C98.7192 11.1599 98.0916 11.3429 97.6733 11.7089C97.255 12.0619 97.0458 12.6894 97.0458 13.5915V18.6704H93.6925V7.72816H97.0458V9.55186Z" fill="black"/>
<path d="M106.277 18.8273C105.205 18.8273 104.237 18.5985 103.375 18.1409C102.525 17.6834 101.852 17.0297 101.355 16.18C100.871 15.3302 100.629 14.3366 100.629 13.1993C100.629 12.075 100.878 11.088 101.374 10.2382C101.871 9.37537 102.551 8.71518 103.414 8.25762C104.277 7.80006 105.244 7.57128 106.316 7.57128C107.388 7.57128 108.355 7.80006 109.218 8.25762C110.081 8.71518 110.761 9.37537 111.258 10.2382C111.754 11.088 112.003 12.075 112.003 13.1993C112.003 14.3236 111.748 15.3171 111.238 16.18C110.741 17.0297 110.055 17.6834 109.179 18.1409C108.316 18.5985 107.349 18.8273 106.277 18.8273ZM106.277 15.925C106.917 15.925 107.46 15.6897 107.904 15.2191C108.362 14.7484 108.591 14.0752 108.591 13.1993C108.591 12.3234 108.368 11.6501 107.924 11.1795C107.493 10.7088 106.957 10.4735 106.316 10.4735C105.662 10.4735 105.12 10.7088 104.688 11.1795C104.257 11.637 104.041 12.3103 104.041 13.1993C104.041 14.0752 104.25 14.7484 104.669 15.2191C105.1 15.6897 105.636 15.925 106.277 15.925Z" fill="black"/>
<path d="M116.351 4.15918V18.6704H112.997V4.15918H116.351Z" fill="black"/>
<path d="M121.35 4.15918V18.6704H117.996V4.15918H121.35Z" fill="black"/>
<path d="M122.329 13.1797C122.329 12.0554 122.538 11.0683 122.956 10.2186C123.388 9.36884 123.969 8.71518 124.701 8.25762C125.433 7.80006 126.251 7.57128 127.153 7.57128C127.924 7.57128 128.597 7.72815 129.172 8.04191C129.761 8.35567 130.212 8.76747 130.525 9.27733V7.72816H133.879V18.6704H130.525V17.1212C130.199 17.6311 129.741 18.0429 129.153 18.3566C128.578 18.6704 127.904 18.8273 127.133 18.8273C126.244 18.8273 125.433 18.5985 124.701 18.1409C123.969 17.6703 123.388 17.0101 122.956 16.1603C122.538 15.2975 122.329 14.304 122.329 13.1797ZM130.525 13.1993C130.525 12.3626 130.29 11.7024 129.82 11.2187C129.362 10.735 128.8 10.4931 128.133 10.4931C127.466 10.4931 126.898 10.735 126.427 11.2187C125.969 11.6893 125.741 12.343 125.741 13.1797C125.741 14.0164 125.969 14.6831 126.427 15.1799C126.898 15.6636 127.466 15.9054 128.133 15.9054C128.8 15.9054 129.362 15.6636 129.82 15.1799C130.29 14.6962 130.525 14.036 130.525 13.1993Z" fill="black"/>
</g>
<defs>
<linearGradient id="paint0_linear" x1="39.2195" y1="0.890625" x2="-2.92208e-07" y2="40.1101" gradientUnits="userSpaceOnUse">
<stop stop-color="#FFC107"/>
<stop offset="1" stop-color="#FF9800"/>
</linearGradient>
<clipPath id="clip0">
<rect width="88.2439" height="32.6829" fill="white" transform="translate(45.7559 4.15918)"/>
</clipPath>
</defs>
</svg>
